<?xml version="1.0" encoding="UTF-8"?>
<svg id="Layer_2" data-name="Layer 2" xmlns="http://www.w3.org/2000/svg" viewBox="0 0 676 241">
  <defs>
    <style>
      .cls-1 {
        fill: none;
        stroke: #fff;
        stroke-linecap: round;
        stroke-miterlimit: 10;
        stroke-width: 2px;
      }
    </style>
  </defs>
  <g id="Layer_2-2" data-name="Layer 2">
    <path class="cls-1" d="m411,1h257.61c3.53,0,6.39,2.86,6.39,6.39v226.22c0,3.53-2.86,6.39-6.39,6.39H7.39c-3.53,0-6.39-2.86-6.39-6.39V7.39C1,3.86,3.86,1,7.39,1h252.61"/>
  </g>
</svg>