<?xml version="1.0" encoding="utf-8"?>
<!-- Generator: Adobe Illustrator 28.0.0, SVG Export Plug-In . SVG Version: 6.00 Build 0)  -->
<svg version="1.1" id="Layer_1" xmlns="http://www.w3.org/2000/svg" xmlns:xlink="http://www.w3.org/1999/xlink" x="0px" y="0px"
	 viewBox="0 0 97.6 112.5" style="enable-background:new 0 0 97.6 112.5;" xml:space="preserve">
<style type="text/css">
	.st0{fill:#FFFFFF;}
</style>
<g id="Groupe_3000" transform="translate(-87.306 -269.696)">
	<path id="Tracé_1052" class="st0" d="M138.6,324.1c0-0.1,0-0.1,0-0.2c0-0.1,0-0.1,0-0.2l-1.5-6.6l10.7-15.2c0,0,0,0,0,0l0-0.1
		c0.1-0.1,0.1-0.2,0.1-0.2l0.1-0.1c0-0.1,0.1-0.1,0.1-0.2c0,0,0-0.1,0-0.1l0.1-0.1c0-0.1,0.1-0.2,0.1-0.2c0,0,0-0.1,0-0.1
		c0-0.1,0-0.1,0.1-0.2c0,0,0-0.1,0-0.1l-1.2-0.2l1.2,0.1c0-0.1,0-0.1,0-0.2s0-0.1,0-0.2l-1.2-0.1l1.3,0c0,0,0-0.1,0-0.1
		c0-0.1,0-0.1,0-0.2c0,0,0-0.1,0-0.2c0-0.1,0-0.1,0-0.2c0,0,0-0.1,0-0.1c0,0,0-0.1,0-0.2l0,0c0,0,0-0.1,0-0.1c0-0.1,0-0.1-0.1-0.2
		c0-0.1,0-0.1-0.1-0.2c0,0,0-0.1-0.1-0.1c0-0.1-0.1-0.1-0.1-0.2l-0.1-0.1c0-0.1-0.1-0.1-0.1-0.2c0,0,0-0.1-0.1-0.1
		c0-0.1-0.1-0.1-0.1-0.2c0,0-0.1-0.1-0.1-0.1l-0.9,0.8l0.9-0.9l-0.1-0.1c-0.1-0.1-0.1-0.1-0.2-0.2c0,0-0.1-0.1-0.1-0.1
		c-0.1-0.1-0.1-0.1-0.2-0.2c0,0,0,0-0.1-0.1l-0.1-0.1c0,0-0.1-0.1-0.2-0.1c0,0-0.1-0.1-0.1-0.1c0,0-0.1-0.1-0.1-0.1
		c0,0-0.1,0-0.1-0.1l-22.4-9.5l-8.7-15.2c-1-1.8-3.3-2.4-5.1-1.3c-1.8,1-2.4,3.3-1.4,5.1l9.3,16.4c0.5,0.9,1.3,1.5,2.3,1.8l18.7,7.9
		l-9,12.8c0,0,0,0.1-0.1,0.1l-0.1,0.2c0,0-0.1,0.1-0.1,0.2c0,0.1-0.1,0.1-0.1,0.2c0,0-0.1,0.1-0.1,0.2c0,0.1,0,0.1-0.1,0.2
		c0,0.1,0,0.1-0.1,0.2s0,0.1,0,0.2c0,0.1,0,0.1,0,0.2c0,0.1,0,0.1,0,0.2c0,0.1,0,0.1,0,0.2c0,0.1,0,0.1,0,0.2v0c0,0,0,0.1,0,0.1
		c0,0.1,0,0.1,0,0.2s0,0.1,0,0.2c0,0.1,0,0.1,0,0.2c0,0.1,0,0.1,0,0.2l1.1,4.7l-26.3,7.1l-0.1,0c-0.1,0-0.1,0-0.2,0.1l0,0
		c0,0-0.1,0-0.1,0c-0.1,0-0.1,0.1-0.2,0.1c0,0-0.1,0.1-0.1,0.1c-0.1,0-0.1,0.1-0.2,0.1c-0.1,0-0.1,0.1-0.2,0.1s-0.1,0.1-0.2,0.1
		c-0.1,0-0.1,0.1-0.1,0.1c0,0-0.1,0.1-0.1,0.1l0.8,0.9l-0.9-0.9c0,0-0.1,0.1-0.1,0.1c0,0-0.1,0.1-0.1,0.1c0,0-0.1,0.1-0.1,0.1
		c0,0.1-0.1,0.1-0.1,0.1l1,0.8l-1-0.7c0,0-0.1,0.1-0.1,0.1s-0.1,0.1-0.1,0.1l1.1,0.7l-1.1-0.6c0,0-0.1,0.1-0.1,0.1
		c0,0.1-0.1,0.1-0.1,0.2c0,0,0,0.1-0.1,0.1c0,0.1,0,0.1-0.1,0.2l-0.1,0.2c0,0.1,0,0.1-0.1,0.2c0,0.1,0,0.1,0,0.1c0,0.1,0,0.1,0,0.2
		c0,0.1,0,0.1,0,0.2l0,0.1c0,0.1,0,0.1,0,0.2v0.1c0,15.3,12.4,27.7,27.7,27.7c2.1,0,3.8-1.7,3.8-3.8c0-2.1-1.7-3.8-3.8-3.8
		c-10-0.1-18.5-7.5-20-17.4l26.8-7.3c0,0,0.1,0,0.2,0s0.1,0,0.2-0.1s0.1,0,0.2-0.1c0.1,0,0.1-0.1,0.2-0.1c0.1,0,0.1-0.1,0.2-0.1
		c0,0,0.1-0.1,0.1-0.1c0.1,0,0.1-0.1,0.2-0.1c0.1,0,0.1-0.1,0.1-0.1s0.1-0.1,0.1-0.1c0,0,0.1-0.1,0.2-0.1c0,0,0.1-0.1,0.1-0.1
		l0.1-0.1c0,0,0.1-0.1,0.1-0.1c0,0,0.1-0.1,0.1-0.2c0,0,0.1-0.1,0.1-0.1c0,0,0.1-0.1,0.1-0.2l0.1-0.2c0,0,0-0.1,0.1-0.1
		c0,0,0-0.1,0.1-0.2c0-0.1,0-0.1,0.1-0.1c0-0.1,0-0.1,0.1-0.2c0-0.1,0-0.1,0.1-0.2c0-0.1,0-0.1,0-0.2c0-0.1,0-0.1,0-0.2
		c0-0.1,0-0.1,0-0.2s0-0.1,0-0.2c0-0.1,0-0.1,0-0.2c0-0.1,0-0.1,0-0.2C138.6,324.3,138.6,324.2,138.6,324.1z"/>
	<path id="Tracé_1053" class="st0" d="M110.8,295.5c1.2-1.7,0.8-4-0.9-5.2c-1.7-1.2-4-0.8-5.2,0.9c0,0,0,0.1-0.1,0.1
		c-1.5,2.3-3.7,4.1-6.3,5.1c-1.7,0.7-3.6,0.6-5.2-0.3c-1.7-1.2-4-0.7-5.2,1c0,0,0,0,0,0c-1.2,1.7-0.7,4.1,1,5.2
		c0.8,0.6,1.7,1,2.6,1.3c1.4,0.5,2.8,0.7,4.3,0.7l0,0c1.7,0,3.4-0.3,4.9-0.9C104.9,302,108.4,299.2,110.8,295.5z"/>
	<path id="Tracé_1054" class="st0" d="M151.4,332c-1.6-1.5-4.2-1.5-5.8,0.2c-1.5,1.6-1.5,4,0,5.6c4.5,4.5,4.5,11.7,0,16.2
		c-1.6,1.6-1.7,4.1-0.1,5.8c1.6,1.6,4.1,1.7,5.8,0.1c0,0,0.1-0.1,0.1-0.1C159.1,352.1,159.1,339.7,151.4,332L151.4,332z"/>
	<path id="Tracé_1055" class="st0" d="M160.8,323.2c-1.6-1.6-4.2-1.6-5.8,0c-1.6,1.6-1.6,4.2,0,5.8l0,0c10.1,10.1,10.1,26.4,0,36.5
		c-1.6,1.6-1.6,4.2,0,5.8c1.6,1.6,4.2,1.6,5.8,0l0,0C174,358,174,336.5,160.8,323.2L160.8,323.2z"/>
	<path id="Tracé_1056" class="st0" d="M170.9,313.4c-1.6-1.6-4.2-1.6-5.7,0c0,0,0,0,0,0c-1.6,1.6-1.6,4.2,0,5.8
		c7.4,7.4,11.6,17.5,11.6,28c0,10.5-4.1,20.6-11.6,28c-1.6,1.6-1.6,4.2,0,5.8c1.6,1.6,4.2,1.6,5.8,0c0,0,0,0,0,0
		c9-8.9,14-21.1,14-33.8C184.9,334.6,179.9,322.4,170.9,313.4z"/>
</g>
</svg>
