{
  "files": {
    "main.css": "./static/css/main.18ed27c2.css",
    "main.js": "./static/js/main.87623bd3.js",
    "static/js/27.70d3b044.chunk.js": "./static/js/27.70d3b044.chunk.js",
    "static/media/music.mp3": "./static/media/music.123ef50fc752d1c667d8.mp3",
    "static/media/gif": "./static/media/26f104d3cf623f5101fcbf26c3b57d55.cce04097e6df0dc3b703.gif",
    "static/media/Handjet-Medium.ttf": "./static/media/Handjet-Medium.2472d17f225c398541ef.ttf",
    "static/media/Montserrat-Bold.ttf": "./static/media/Montserrat-Bold.50f0257aa1e905f4bfaf.ttf",
    "static/media/Montserrat-SemiBold.ttf": "./static/media/Montserrat-SemiBold.93b37a465fc4ec0d0415.ttf",
    "static/media/Montserrat-Regular.ttf": "./static/media/Montserrat-Regular.24785cc015b27a3e964b.ttf",
    "static/media/pizza.svg": "./static/media/pizza.2b0f0df36fbbaf4ebf72bdbb0ccb5f30.svg",
    "static/media/background_02.svg": "./static/media/background_02.2989c1dee119f102ade607f5928a21c0.svg",
    "service-worker.js": "./service-worker.js",
    "static/media/error.mp3": "./static/media/error.8ab15d65c50b5468452c.mp3",
    "static/media/ok.mp3": "./static/media/ok.622535f59c36e32a9158.mp3",
    "static/media/lock.mp3": "./static/media/lock.7381e5cdb0eac09a047f.mp3",
    "static/media/win.mp3": "./static/media/win.03be45997c94265c5909.mp3",
    "static/media/speak.svg": "./static/media/speak.83c0265788639d05a3ed75b26db724c0.svg",
    "static/media/search.svg": "./static/media/search.2c5bd46fd7ac5ee5a7bd3535518fc4f2.svg",
    "index.html": "./index.html",
    "static/media/border_speak.svg": "./static/media/border_speak.59c9408b31cd05a5f9ee1eb0f6013222.svg",
    "static/media/getFetch.cjs": "./static/media/getFetch.40f37ddea2378391108f.cjs"
  },
  "entrypoints": [
    "static/css/main.18ed27c2.css",
    "static/js/main.87623bd3.js"
  ]
}